{
  "DM_MAIN_MENU_ITEM" : "RDM",
  "DM_MAIN_STATE_CONNECT" : "Connection status",
  "DM_MAIN_STATE_COMPLEX_STATE" : "Condition",
  "DM_RATING_TAG_OFF" : "Off",
  "DM_RATING_TAG_ON" : "On",
  "DM_RATING_TAG_UNKNOWN" : "Unknown",
  "DM_RATING_TAG_NORMA" : "Norm",
  "DM_RATING_TAG_FAIL" : "Rejection",
  "DM_RATING_TAG_ALARM" : "Accident",
  "DM_RATING_TAG_REMOTE_CONTROL" : "Remote control",
  "DM_RATING_TAG_SERVICE" : "Service",
  "DM_RATING_TAG_LOCAL_CONTROL" : "Local control",
  "DM_RATING_TAG_DEBUG" : "Debugging",
  "DM_RATING_TAG_TRUE_MOVEMENT" : "Penetration",
  "DM_LIGHT_BARRIER_ENABLE_FALSE" : "Accident",
  "DM_LIGHT_BARRIER_ENABLE_TRUE" : "On",
  "DM_LIGHT_BARRIER_ENABLE_OFF" : "Off",
  "DM_LIGHT_BARRIER_FAILED_FALSE" : "Norm",
  "DM_LIGHT_BARRIER_FAILED_TRUE" : "Accident",
  "DM_NET_CONNECT_TRUE" : "Accident",
  "DM_NET_CONNECT_FALSE" : "Norm",
  "DM_KIT_STATE_OFF" : "Off",
  "DM_KIT_STATE_ACTIVE" : "Basic",
  "DM_KIT_STATE_RESERVE" : "Reserve",
  "DM_BTN_ON1" : "On 1",
  "DM_BTN_ON2" : "On 2",
  "DM_BTN_OFF" : "Off",
  "DM_CONNECT_DM_BEACON_ONLINE" : "Norm",
  "DM_LIGHT_BARRIER_HEAD" : "Obstruction lights",
  "DM_LIGHT_BARRIER_ENABLE" : "Condition",
  "DM_LIGHT_BARRIER_ASSESSMENT" : "Evaluation",
  "DM_SUPPLY_HEAD" : "Supply of an array",
  "DM_SUPPLY_EXIT_NET" : "Output network",
  "DM_SUPPLY_BATTERY" : "Electric power storage",
  "DM_EX_IP" : "Output of electric power supply",
  "DM_SUPPLY" : "Supply of an array",
  "DM_KIT_HEAD" : "Array",
  "DM_KIT_ASSESSMENT" : "Evaluation",
  "DM_KIT_STATE" : "Condition",
  "DM_MAIN_STATE_EQUIPMENT_QWERTY" : "Equipment status"
}